{
	"id": "68334bf8-3783-4918-8a7d-bad42fcfcb8a",
	"name": "Alten Booking API",
	"values": [
		{
			"key": "booking-url",
			"value": "http://localhost:7000",
			"enabled": true
		},
		{
			"key": "reservation-id",
			"value": "01F6DWAC4QXXD7K4PCB5MGV5ES",
			"enabled": true
		}
	],
	"_postman_variable_scope": "environment",
	"_postman_exported_at": "2021-05-26T04:52:00.891Z",
	"_postman_exported_using": "Postman/8.5.1"
}